%YAML 1.1
%TAG !u! tag:unity3d.com,2011:
--- !u!55 &1
PhysicsManager:
  m_ObjectHideFlags: 0
  serializedVersion: 2
  m_Gravity: {x: 0, y: -9.81000042, z: 0}
  m_DefaultMaterial: {fileID: 0}
  m_BounceThreshold: 2
  m_SleepThreshold: .00499999989
  m_DefaultContactOffset: .00999999978
  m_SolverIterationCount: 6
  m_QueriesHitTriggers: 1
  m_EnableAdaptiveForce: 0
  m_LayerCollisionMatrix: c800fcffc800fcffc800fcffffffffffc800fcffc800fcffffffffffffffffffc806fcffc8f1ffffc801fcffc830fcffc82afcffc81afcffc802fcffc802fcffc802fcffc802fcffffffffffffffffffffffffffffffffffffffffffffffffffffffffffffffffffffffffffffffffffffffffffffffffffffffffffffffffff
