%YAML 1.1
%TAG !u! tag:unity3d.com,2011:
--- !u!78 &1
TagManager:
  serializedVersion: 2
  tags:
  - Tower
  - FxTemporaire
  - DropBlue
  - DropYellow
  - DropWhite
  - PlayerRange
  layers:
  - Default
  - TransparentFX
  - Ignore Raycast
  - 
  - Water
  - UI
  - 
  - 
  - Tower
  - Player
  - PlayerRange
  - Floor
  - Projectile
  - Obstacle
  - DropBlue
  - DropYellow
  - DropWhite
  - Wall
  - 
  - 
  - 
  - 
  - 
  - 
  - 
  - 
  - 
  - 
  - 
  - 
  - 
  - 
  m_SortingLayers:
  - name: Default
    uniqueID: 0
    locked: 0
